<svg xmlns="http://www.w3.org/2000/svg" xmlns:xlink="http://www.w3.org/1999/xlink" xmlns:ev="http://www.w3.org/2001/xml-events"
		xmlns:v="http://schemas.microsoft.com/visio/2003/SVGExtensions/" width="1.11278in" height="2.05766in"
		viewBox="0 0 80.1201 148.152" xml:space="preserve" color-interpolation-filters="sRGB" class="st2">


<linearGradient id="anim"  fy="0">
      <stop offset="0" stop-color="#148F01">
		</stop>
		<stop offset=".7" stop-color="#46DF04">
		</stop>
    </linearGradient>
    
    		<g id="shape1-1" v:mID="1" v:groupContext="shape" transform="translate(0.375,-0.375)">
			<rect fill="url(#anim)"  stroke='rgba(49,163,0,0.7)' x="0" y="0.749998" width="79.3701" height="147.402" class="st1"/>
		</g>
</svg>
